"LightmappedGeneric"
{
	"$basetexture" "wood/woodfloor005a"
	"$basetexturetransform" "center .5 .5 scale 4 4 rotate 0 translate 0 0"
	"$bumpmap" "wood/woodfloor005a_normal"
	"$translucent" 0
	"$surfaceprop" "wood"
}
